/* The linker script will be generated by the cortex-m-rt crate.
 * 
 * However the crate requires the user to define the memory layout.
 * In particular two regions mustbe specified : the FLASH and some RAM.
 * 
 * _stack_start defines the beginning of our stack. It is optional but here it will be
 * specified as there are 2 RAM regions on the STM32L475xx.
 * 
 * Finally _stext will be left as default.
 *
 * For more details, please refer to the documentation of cortex-m-rt :
 *  https://docs.rs/cortex-m-rt/0.7.2/cortex_m_rt/
 */

/* These values can be found in the reference of the STM32L4x5 boards.
 *  cf. p.75 (mem layout), 87 (embedded RAM) */
MEMORY  
{
    FLASH : ORIGIN = 0x08000000, LENGTH = 1M
    RAM : ORIGIN = 0x20000000, LENGTH = 96K
    SRAM2 : ORIGIN = 0x10000000, LENGTH = 32K
}

/* The stack pointer may be initialized on top of SRAM1.
 * It will therefore be provided a large amount of memory.
 *
 * Furthermore, if there should be a stack overflow, the program would then try to access
 * memory addresses below 0x2000_0000, which would raise a HardFault, hence protecting us
 * from undefined behaviours. */
_stack_start = ORIGIN(RAM) + LENGTH(RAM);

/* The .text is let to start just after the vector table. */
